{
    "login": {
        "loginHeading": "Willkommen bei verein.cloud",
        "loginDesc": "Mit Verein.Cloud® erschließen wir Vereinen Mehrwerte und Erlösquellen, die über die Beitragseinnahmen hinaus gehen. Eine Spenden-Plattform schafft automatisiert Zugang zur Finanzierung von Vorhaben und Projekten. Mit dem profilierten Zugang zu Vereinsmitgliedern können Vereine ihre Sponsoren nachhaltiger einbinden. Mitglied und Verein profitieren von Loyalty-, Gutschein oder Cash Back-Funktionen und weiteren Mehrwerten und Diensten.",
        "signInHeading": "Melde Dich an",
        "userName": "User Name",
        "password": "Passwort",
        "rememberMe": "Login speichern",
        "recoverPassword": "Passwort vergessen ?",
        "signIn": "Anmelden",
        "userNameError": "Es wird ein Username benötigt.",
        "passwordError": "Es wird ein Passwort benötigt."
    },
    "menu": {
        "dashboard": "Startseite",
        "club_wall": "Vereins-Wall",
        "community": "Community",
        "organizer": "Organizer",
        "marketplace": "Marktplatz",
        "main_profile": "Mein Profil",
        "widget": "Widgets"
    },
    "recoverPassword": {
        "loginHeading": "Willkommen bei verein.cloud",
        "loginDesc": "Mit Verein.Cloud® erschließen wir Vereinen Mehrwerte und Erlösquellen, die über die Beitragseinnahmen hinaus gehen. Eine Spenden-Plattform schafft automatisiert Zugang zur Finanzierung von Vorhaben und Projekten. Mit dem profilierten Zugang zu Vereinsmitgliedern können Vereine ihre Sponsoren nachhaltiger einbinden. Mitglied und Verein profitieren von Loyalty-, Gutschein oder Cash Back-Funktionen und weiteren Mehrwerten und Diensten.",
        "passwordHeading": "Passwort vergessen",
        "userName": "User Name",
        "backTo": "Zurück zur",
        "signIn": "Anmeldung",
        "haveAccount": "Du hast noch keinen Account?",
        "submit": "Absenden",
        "userNameError": "Es wird ein gültiger Username benötogt.",
        "successMsg": "Überprüfe deinen E-Mail Posteingang auf eine Nachricht von support@verein.cloud. Dort findest du einen Link um dein Passwort zurück zu setzen."
    },
    "dashboard": {
        "title": "Startseite",
        "club_wall": "Vereins-Wall",
        "club_wall_subtext": "Neue News",
        "community": "Community",
        "community_subtext": "Neue Nachrichten/ Chats",
        "organizer": "Organizer",
        "organizer_subtext": "Neue Aufgaben",
        "marketplace": "Marktplatz",
        "marketplace_subtext": "Neue Angebote",
        "dashboardNewsAuthor": "Veröffentlicht von",
        "dashboardNewsTitle": "Aktuelle Vereins-News",
        "dashboardNewsContent": "Mehr lesen",
        "dashboardNewsShowAll": "Alle anzeigen"
    },
    "club_wall": {
        "title": "Vereins-Wall",
        "create_news": "Neue News",
        "create_event": "Event erstellen",
        "club_news": "Vereins-News",
        "club_dates": "Vereins-Termine",
        "club_events": "Vereins-Events"
    },
    "community": {
        "title": "Community",
        "messages": "Nachrichten/ Chats",
        "groups": "Gruppen",
        "new_message": "Neue Nachricht",
        "new_chat": "Neuer Chat",
        "new_group": "Neue Gruppe"
    },
    "community_groups": {
        "groups": "Gruppen",
        "groups_u_joined": "Gruppen in denen Du Mitglied bist",
        "all_groups": "Alle Gruppen",
        "join_group": "Gruppe beitreten",
        "leave_group": "Gruppe verlassen",
        "groups_u_manage": "Gruppen die Du verwaltest",
        "participants": "Teilnehmer",
        "all_participants": "Alle Teilnehmer",
        "cancelled": "Abgelehnt",
        "pending": "Ausstehend",
        "approved": "Angenommen",
        "Edit_group": "Gruppe bearbeiten",
        "Delete": "Löschen",
        "Back": "Zurück",
        "delete_group_popup": "Möchten Sie diese Gruppe wirklich löschen?",
        "leave_group_popup": "Möchten Sie diese Gruppe wirklich verlassen?",
        "join_group_popup": "Möchten Sie dieser Gruppe wirklich beitreten?",
        "group_news": "Gruppen-News",
        "no_news": "Keine News gefunden.",
        "read_more": "Mehr lesen",
        "posts_for_u": "Posts für Dich",
        "members": "Mitglieder",
        "posts": "Posts"
    },
    "community_messages": {
        "all_active_chat": "Chats",
        "personal_messages": "Persönliche-Nachrichten",
        "club_messages": "Vereins-Nachrichten",
        "group_messages": "Gruppen-Nachrichten",
        "search": "Suche",
        "inbox": "Posteingang",
        "starred": "Markierte",
        "sent": "Gesendet",
        "drafts": "Entwürfe",
        "allmail": "Alle Nachrichten",
        "trash": "Papierkorb",
        "reply": "Antworten",
        "replyToAll": "Allen Antworten",
        "delete": "Löschen",
        "personalMessages": "Keine persönlichen Nachrichten gefunden",
        "personalStarredMessages": "Keine markierten Nachrichten vorhanden",
        "personalSentMessages": "Keine gesendeten Nachrichten vorhanden",
        "personalDraftMessages": "Keine Entwürfe vorhanden",
        "personalAllMessages": "Keine Nachricht vorhanden",
        "personalTrashMessages": "Keine Nachrichten im Papierkorb",

        "groupMessages": "Keine Gruppen-Nachrichten",
        "groupStarredMessages": "Keine markierten Nachrichten vorhanden",
        "groupSentMessages": "Keine gesendeten Nachrichten vorhanden",
        "groupDraftMessages": "Keine Entwürfe vorhanden",
        "groupAllMessages": "Keine Nachricht vorhanden",
        "groupTrashMessages": "Keine Nachricht vorhanden",

        "clubMessages": "Keine Vereins-Nachrichten",
        "clubStarredMessages": "Keine markierten Nachrichten vorhanden",
        "clubSentMessages": "Keine gesendeten Nachrichten vorhanden",
        "clubDraftMessages": "Keine Entwürfe vorhanden",
        "clubAllMessages": "Keine Nachricht vorhanden",
        "clubTrashMessages": "Keine Nachricht vorhanden"
    },
    "group_news": {
        "title": "Gruppen-News",
        "club": "Verein",
        "no_news": "Keine News gefunden."
    },
    "club_events": {
        "title": "Event-Liste",
        "no_events": "Keine Events",
        "today": "Heute",
        "show_calendar": "Kalender anzeigen",
        "upcoming": "Demnächst"
    },
    "club_news": {
        "Edit": "Bearbeiten",
        "Delete": "Löschen",
        "Back": "Zurück"
    },
    "profile": {
        "profile_nav": {
            "general_info": "Allgemeine Informationen",
            "payment_data": "Meine Zahlungsdaten",
            "club_data": "Stammdaten des Vereins",
            "my_club_data": "Ich im Verein"
        },
        "member": "Mitglied",
        "club": "Verein",
        "delete": "Löschen",
        "upload_pic": "Neues Profilbild hochladen",
        "my_address": "Meine Adresse",
        "club_address": "Vereins Adress",
        "street": "Straße",
        "house_number": "Hausnummer",
        "more_info": "Mehr Infos",
        "city": "Stadt",
        "country": "Land",
        "zip_code": "PLZ",
        "contact_data": "Daten zur Kommunikation",
        "userEmail": "E-Mail Adresse",
        "phone": "Telefonnummer",
        "dob": "Geburtstag",
        "share_birthday": "Geburtstag mit anderen Teilen?",
        "homepage": "Website",
        "change_password": "Passwort ändern",
        "old_password": "Altes Passwort",
        "new_password": "Neues Passwort",
        "confirm_password": "Passwort bestätigen",
        "enter_old_password": "Altes Passwort eingeben",
        "enter_new_password": "Neues Passwort eingeben",
        "enter_confirm_password": "Neues Passwort bestätigen",
        "submit": "Absenden",
        "cancel": "Abbrechen",
        "save": "Speichern & Updaten"
    },
    "profile_bank": {
        "title": "Bank-Daten",
        "bank_holder_name": "Name des Kontoinhabers",
        "payment_method": "IBAN",
        "bic": "BIC",
        "success_msg": "Erfolgreich aktualisiert und zur Genehmigung an den Admin gesendet",
        "bank_name": "Bank-Name"
    },
    "header": {
        "search": "Suchen...",
        "accept": "Akzeptieren",
        "deny": "Verweigern",
        "messages": "Nachricht",
        "chat": "Chat",
        "event": "Event",
        "task": "Aufgabe",
        "group": "Gruppe",
        "news": "News",
        "group_details": "Gruppen-Details",
        "event_details": "Veranstaltungs-Details",
        "manage_account": "Mein Profil",
        "contact_admin": "Einen Admin kontaktieren",
        "invited_you_to": "hat dich eingeladen zu",
        "want_to_join_a_group_called": "möchte einer Gruppe namens beitreten",
        "want_to_publish_an_Event_calles": "möchte einen Event namens veröffentlichen",
        "want_to_publish_an_Article_called": "möchte einen Artikel namens veröffentlichen",
        "want_to_publish_a_Task_called": "möchte eine Aufgabe namens . veröffentlichen",
        "want_to_send_message_called": "möchte eine Nachricht senden mit dem Betreff",
        "signout": "Abmelden"
    },
    "organizer": {
        "title": "Organizer",
        "events": "Events",
        "task_list": "Aufgaben",
        "documents": "Dokumente",
        "create_event": "Event erstellen",
        "create_task": "Aufgabe erstellen",
        "collaborators": "Mitglieder",
        "upload_document": "Dokument hochladen",
        "events_appointments_title": "Events & Termine",
        "organizer": "Organizer",
        "all_participants": "Alle Teilnehmer",
        "price": "Preis",
        "free": "Kostenlos",
        "cancelled": "Abgelehnt",
        "pending": "Ausstehend",
        "approved": "Angenommen",
        "Edit": "Bearbeiten",
        "Delete": "Löschen",
        "Back": "Zurück",
        "event_title": "Event-Liste",
        "event_meeting": "Meeting",
        "event_today": "Heute",
        "event_upcoming": "Demnächst",
        "due_date": "Opleveringsdatum"
    },
    "organizer_task": {
        "title": "Aufgaben",
        "all_task": "Alle Aufgaben",
        "no_task_available": "Keine Aufgaben vorhanden",
        "medium": "Mittel",
        "high": "Hoch",
        "low": "Gering",
        "completed": "Erledigt",
        "personal_task": "Meine Aufgaben",
        "created_task": "Von mir erstellte Aufgaben",
        "group_task": "Gruppen-Aufgaben",
        "uncomplete_subrask":"Unvollständig Unteraufgabe",
        "uncomplete_heading":"Diese Aufgabe hat eine unvollständige Teilaufgabe. Bitte zuerst die Teilaufgabe covervollständigen",
        "close_subtask":"Nah dran"
    },
    "club_document": {
        "title": "Dokumente",
        "all": "Alle",
        "no_documents": "Keine Dokumente",
        "my_documents": "Meine Dokumente",
        "club_documents": "Vereins Dokumente",
        "current_status": "Aktuelle Satzung",
        "archived_documents": "Archiv"
    },
    "create_event": {
        "title": "Neues Event",
        "title_placeholder": "Event-Titel",
        "title_label": "Titel",
        "location": "Austragungsort",
        "location_placeholder": "Event-Ort",
        "type": "Typ",
        "type_placeholder": "Event-Typ",
        "start_date": "Start-Datum",
        "start_time": "Uhrzeit",
        "end_date": "End-Datum",
        "end_time": "Uhrzeit",
        "room_number": "Raum",
        "optional": "(Optional)",
        "room_number_placeholder": "Raum",
        "visibility": "Sichtbarkeit",
        "visibility_placeholder": "Sichtbarkeit",
        "participants": "Teilnehmer",
        "participants_placeholder": "Teilnehmer",
        "show_guests": "Gäste anzeigen",
        "chargeable": "Kosten",
        "event_price": "Kosten",
        "event_price_placeholder": "Betrag",
        "add_a_picture_optional": "Bild hinzufügen (Optional)",
        "description": "Beschreibung",
        "description_placeholder": "Beschreibung hinzufügen...",
        "cancel": "Abbrechen",
        "public": "Öffentlich",
        "private": "Privat",
        "group": "Gruppe",
        "club": "Verein",
        "save_and_update": "Erstellen",
        "club_event": "Vereins-Event",
        "group_event": "Gruppen-Event",
        "functionaries_event": "Funktionärs-Event",
        "courses": "Kurs",
        "seminar": "Seminar",
        "showall": "Alle anzeigen"
    },
    "create_news": {
        "title": "News",
        "title_label": "Titel",
        "title_placeholder": "Titel hinzufügen",
        "content": "Inhalt",
        "content_placeholder": "Neuigkeiten hier eintragen...",
        "visible": "Sichtbarkeit",
        "visible_everyone": "Für jeden sichtbar",
        "visible_group": "Für eine Gruppe sichtbar",
        "group": "Gruppen-Name",
        "category": "Category-Name",
        "show_guest": "Gästen anzeigen",
        "add_picture": "Ein Bild hinzufügen",
        "cancel": "Abbrechen",
        "save": "Erstellen"
    },
    "create_group": {
        "title": "Gruppe erstellen",
        "title_update": "Gruppe aktualisieren",
        "cancelled": "Abgelehnt",
        "pending": "Ausstehend",
        "approved": "Angenommen",
        "group_name": "Gruppen-Name",
        "add_a_picture": "Bild hinzufügen",
        "description": "Beschreibung",
        "description_placeholder": "Beschreibung hinzufügen...",
        "participants": "Teilnehmer",
        "all_participants": "Alle Teilnehmer",
        "cancel": "Abbrechen",
        "save_and_update": "Erstellen",
        "create_button": "Gruppe erstellen"
    },
    "create_message": {
        "title": "Neue Nachricht",
        "consignee": "Empfänger",
        "consignee_placeholder": "Empfänger hinzufügen...",
        "subject": "Betreff",
        "subject_placeholder": "Betreff hinzufügen...",
        "content": "Nachricht",
        "content_placeholder": "Nachricht eingeben...",
        "send": "Senden",
        "personalMsg": "Persönliche-Nachricht",
        "groupMsg": "Gruppen-Nachricht",
        "clubMsg": "Vereins-Nachricht",
        "visible": "Nachrichten-Typ",
        "participantsto": "An:",
        "participantscc": "CC:",
        "add_file": "Anhang hinzufügen:",
        "max": "Max"
    },
    "create_task": {
        "title": "Neue Aufgabe",
        "title_placeholder": "Titel",
        "end_date": "Zu erledigen bis",
        "description": "Beschreibung",
        "description_placeholder": "Beschreibung hinzufügen...",
        "type": "Aufgaben-Typ",
        "individual": "Individual",
        "collaborators": "Mitglieder:",
        "participant": "Teilnehmer",
        "participant_label": "Teilnehmer:",
        "group_label": "Gruppe:",
        "group": "Gruppe",
        "remove": "Löschen",
        "add_subtask": "Unteraufgabe hinzufügen",
        "cancel": "Abbrechen",
        "save_and_update": "Erstellen"
    },
    "error_message": {
        "common_required": "Dies wird benötigt",
        "common_valid": "Es ist nicht zulässig",
        "confirm_password": "Passwörter stimmen nicht überein",
        "min_length": "mindestens 5 Zeichen eingeben",
        "street": "Straße wird benötigt",
        "house_number": "Hausnummer wird benötigt",
        "more_info": "Es werden mehr Informationen benötigt",
        "city": "Ort wird benötigt",
        "zip_code": "PLZ wird benötigt",
        "email_required": "E-Mail wird benötigt",
        "email_proper": "E-Mail ist nicht gültig",
        "phone_required": "Telefonnummer wird benötigt",
        "phone_proper": "Telefonnummer ist nicht gültig",
        "bic_proper": "BIC ist ungültig",
        "iban_proper": "IBAN ist ungültig",
        "end_date_greater": "Enddatum darf nicht vor Startdatum liegen",
        "end_time_same": "ungültige Zeit",
        "dob": "Geburtstag wird benötigt",
        "invalid_pagenumber": "Bitte geben Sie eine gültige Seitenzahl ein",
        "file_valid": "Datei ist ungültig"
    },
    "genral_message": {
        "not_available_msg": "Diese Funktion ist in Ihrer Rolle leider nicht verfügbar"
    },
    "club": {
        "club_appointments": "Aktuelle Vereins-Termine",
        "no_club_appointments": "Keine Vereins Termine gefunden",
        "anniversaries_birthday": "Geburtstage & Jubiläen",
        "no_anniversaries_birthday": "Keine Geburtstage oder Jubiläen gefunden"
    },
    "confirmation_message": {
        "accept_group": "Möchten Sie diese Gruppe akzeptieren?",
        "deny_group": "Möchten Sie diese Gruppe ablehnen?",
        "publish_article": "Möchten Sie diesen Artikel akzeptieren?",
        "deny_article": "Möchten Sie diesen Artikel ablehnen?",
        "delete_article": "Möchten Sie diesen Artikel löschen?",
        "accept_event_invitation": "Möchten Sie die Einladung zu diesem Event annehmen?",
        "deny_event_invitation": "Möchten Sie die Einladung zu diesem Event ablehnen?",
        "approved_event": "Möchten Sie dieses Event genehmigen?",
        "unapproved_event": "Möchten Sie dieses Event ablehnen?",
        "approved_task": "Möchten Sie diese Aufgabe wirklich genehmigen?",
        "unapproved_task": "Möchten Sie diese Aufgabe wirklich ablehnen?",
        "accept_task_invitation": "Möchten Sie die Einladung zu dieser Aufgabe wirklich annehmen?",
        "deny_task_invitation": "Möchten Sie die Einladung zu dieser Aufgabe wirklich ablehnen?",
        "delete_event": "Möchten Sie dieses Event wirklich löschen?",
        "accept_msg": "Möchten Sie diese Nachricht genehmigen?",
        "deny_msg": "Möchten Sie diese Nachricht ablehnen?",
        "send_msg_trash": "Möchten Sie diese Nachricht in den Papierkorb schieben?",
        "permanently_delete_msg": "Möchten Sie diese Nachricht dauerhaft löschen?",
        "delete_draft_msg": "Möchten Sie diesen Entwurf löschen?",
        "save_msg_draft": "Möchten Sie diesen Entwurf speichern?",
        "delete_msg": "Möchten Sie diese Nachricht wirklich löschen?",
        "complete_task": "Möchten Sie diese Aufgabe abschließen?",
        "delete_task": "Möchten Sie diese Aufgabe wirklich löschen?"
    },
    "language": {
        "english": "English",
        "deutsch": "Deutsch",
        "russian": "Russian",
        "turkish": "Turkish"
    },
    "pagination": {
        "previous": "Vorherige",
        "next": "Nächste",
        "go_to_page": "Gehe zu Seite",
        "limit_per_page": "Anzeigen pro Seite"
    },
    "button": {
        "yes": "Ja",
        "no": "Nein"
    },
    "move_document": {
        "move_this_file_to": "Datei verschieben nach",
        "preview_this_file": "Datei Vorschau",
        "download_this_file": "Datei herunterladen",
        "remove_this_file": "Datei Löschen",
        "delete_doc_success": "Dokument erfolgreich gelöscht",
        "move_doc_error": "Etwas ist schief gelaufen, bitte versuchen Sie es erneut",
        "move_doc_success": "Dokument erfolgreich verschoben"
    },
    "header_club": {
        "club_administration": "Vereinsverwaltung"
    },
    "social_link": {
        "social_links": "Social Media",
        "facebook_link": "Facebook Link",
        "twitter_link": "Twitter Link",
        "instagram_link": "Instagram Link"
    },
    "new_create_event": {
        "recurrence": "Ereigniswiederholung",
        "does_not_repeat": "Wiederholt sich nicht",
        "every_day": "Jeden Tag",
        "every_week": "Jede Woche",
        "every_month": "Jeden Monat",
        "every_year": "Jedes Jahr",
        "custom": "eigene",
        "repeat_daily": "Jeden Tag",
        "repeat_weekly": "Jede Woche",
        "repeat_monthly": "Jeden Monat",
        "repeat_yearly": "Jedes Jahr",
        "sunday": "Sonntag",
        "monday": "Montag",
        "tuesday": "Dienstag",
        "wednesday": "Mittwoch",
        "thrusday": "Donnerstag",
        "friday": "Freitag",
        "saturday": "Samstag"
    },
    "response_message": {
        "news_success": "News erfolgreich erstellt",
        "news_already_exist": "Existiert bereits",
        "event_success": "Event erfolgreich erstellt"
    },
    "create_chat": {
        "title": "Neuer Chat",
        "new_club_chat": "Neuer privater Gruppen-Chat",
        "new_group_chat": "Neuer Gruppen-Chat",
        "type": "Chat-Typ"
    }
}